…
Experience summary:
  avg_public_years avg_private_years candidates_with_public candidates_with_private candidates_with_both avg_consecutive_public avg_consecutive_private
1         2.066348          2.006626                   4833                    4843                 4776               1.694898                1.600874

Dominant experience sector:
# A tibble: 4 × 3
  experience_sector_dominant count percentage
  <chr>                      <int>      <dbl>
1 Sin Experiencia Detectada  17286      77.9 
2 Mixto                       2810      12.7 
3 Público                     1376       6.20
4 Privado                      714       3.22

Ideology classification summary:
# A tibble: 44 × 3
   ideology_classification                      count percentage
   <chr>                                        <int>      <dbl>
 1 NO_CLASIFICADO                               10973     49.5  
 2 CENTRO_CONSERVADOR                            5968     26.9  
 3 CENTRO                                        2232     10.1  
 4 IZQUIERDA_TRADICIONAL                         1731      7.80 
 5 POPULISTA_NACIONALISTA_IZQUIERDA_TRADICIONAL   371      1.67 
 6 POPULISTA_IZQUIERDA_TRADICIONAL                165      0.744
 7 IZQUIERDA_MODERADA                             150      0.676
 8 NACIONALISTA_IZQUIERDA_TRADICIONAL             137      0.618
 9 DERECHA_CONSERVADORA                            90      0.406
10 POPULISTA_IZQUIERDA_MODERADA                    50      0.225
# ℹ 34 more rows
# ℹ Use `print(n = ...)` to see more rows
…
